gadgetby.com,998059,US,,104.25.108.19,,
maxxave.com,997929,US,,67.225.139.21,Apache,
turtleskin.com,997588,US,,109.199.113.188,Nginx,
zachys.com,996604,US,,52.70.96.2,Nginx,cs@zachys.com
misq.org,996571,US,,72.10.48.110,Nginx,misq@umn.edu
mitssy.com,996148,US,,104.27.141.106,,
wondamobile.com,995250,US,,104.25.18.103,,
tryphenomcorenow.com,993796,US,,104.28.18.114,,
tonetechpro.com,993460,US,,37.60.242.108,Nginx,info@tonetech.co.uk
sprocketcenter.com,991659,US,,104.207.251.68,Apache,
misq.org,996571,US,,72.10.48.110,Nginx,misq@umn.edu
