sport360.com,4240,US,US,104.20.219.24,
zumiez.com,5194,US,,104.16.114.57,
harborfreight.com,5413,US,,104.130.186.80,Apache
sattamatka.net,5939,US,US,104.25.49.104,Apache
1movies.se,6575,US,US,104.27.191.90,
